…
    url <- "https://tgstewart.cloud/soda.csv"
    class_data <- read_csv(url)

    ## Rows: 70 Columns: 2

    ## ── Column specification ────────────────────────────────────────────────────────
    ## Delimiter: ","
    ## chr (2): cola, sugar
    ## 
    ## ℹ Use `spec()` to retrieve the full column specification for this data.
    ## ℹ Specify the column types or set `show_col_types = FALSE` to quiet this message.

    class_data

    ## # A tibble: 70 × 2
    ##    cola                     sugar               
    ##    <chr>                    <chr>               
    ##  1 Something else           Regular (full sugar)
    ##  2 Something else           Regular (full sugar)
    ##  3 Something else           Regular (full sugar)
    ##  4 Something else           Regular (full sugar)
    ##  5 <NA>                     <NA>                
    ##  6 Cola (Coke, Pepsi, etc.) Zero sugar or diet  
    ##  7 Something else           Regular (full sugar)
    ##  8 Something else           Zero sugar or diet  
    ##  9 Cola (Coke, Pepsi, etc.) Regular (full sugar)
    ## 10 Something else           Zero sugar or diet  
    ## # ℹ 60 more rows
…
